Getting to Know infer • infer
…
Each row is an individual survey response, containing some basic demographic information on the respondent as well as some additional variables. See ?gss for more information on the variables included and their source. Note that this data (and our examples on it) are for demonstration purposes only, and will not necessarily provide accurate estimates unless weighted properly. For these examples, let’s suppose that this dataset is a representative sample of a population we want to learn about: American adults.

specify(): Specifying Response (and Explanatory) Variables

The specify function can be used to specify which of the variables in the dataset you’re interested in. If you’re only interested in, say, the age of the respondents, you might write:

gss %>%
  specify(response = age)

## Response: age (numeric)
## # A tibble: 500 × 1
##      age
##    <dbl>
##  1    36
##  2    34
##  3    24
##  4    42
##  5    31
##  6    32
##  7    48
##  8    36
##  9    30
## 10    33
## # … with 490 more rows
…
## [1] "infer"      "tbl_df"     "tbl"        "data.frame"

We can see that the infer class has been appended on top of the dataframe classes–this new class stores some extra metadata.

If you’re interested in two variables–age and partyid, for example–you can specify their relationship in one of two (equivalent) ways:

# as a formula
gss %>%
  specify(age ~ partyid)

## Response: age (numeric)
## Explanatory: partyid (factor)
## # A tibble: 500 × 2
##      age partyid
##    <dbl> <fct>  
##  1    36 ind    
##  2    34 rep    
##  3    24 ind    
##  4    42 ind    
##  5    31 rep    
##  6    32 rep    
##  7    48 dem    
##  8    36 ind    
##  9    30 rep    
## 10    33 dem    
## # … with 490 more rows

# with the named arguments
gss %>%
  specify(response = age, explanatory = partyid)

## Response: age (numeric)
## Explanatory: partyid (factor)
## # A tibble: 500 × 2
##      age partyid
##    <dbl> <fct>  
##  1    36 ind    
##  2    34 rep    
##  3    24 ind    
##  4    42 ind    
##  5    31 rep    
##  6    32 rep    
##  7    48 dem    
##  8    36 ind    
##  9    30 rep    
## 10    33 dem    
## # … with 490 more rows

If you’re doing inference on one proportion or a difference in proportions, you will need to use the success argument to specify which level of your response variable is a success. For instance, if you’re interested in the proportion of the population with a college degree, you might use the following code:

# specifying for inference on proportions
gss %>%
  specify(response = college, success = "degree")

## Response: college (factor)
## # A tibble: 500 × 1
##    college  
##    <fct>    
##  1 degree   
##  2 no degree
##  3 degree   
##  4 no degree
##  5 degree   
##  6 no degree
##  7 no degree
##  8 degree   
##  9 degree   
## 10 no degree
## # … with 490 more rows

hypothesize(): Declaring the Null Hypothesis

The next step in the infer pipeline is often to declare a null hypothesis using hypothesize(). The first step is to supply one of “independence” or “point” to the null argument. If your null hypothesis assumes independence between two variables, then this is all you need to supply to hypothesize():

gss %>%
  specify(college ~ partyid, success = "degree") %>%
  hypothesize(null = "independence")

## Response: college (factor)
## Explanatory: partyid (factor)
## Null Hypothesis: independence
## # A tibble: 500 × 2
##    college   partyid
##    <fct>     <fct>  
##  1 degree    ind    
##  2 no degree rep    
##  3 degree    ind    
##  4 no degree ind    
##  5 degree    rep    
##  6 no degree rep    
##  7 no degree dem    
##  8 degree    ind    
##  9 degree    rep    
## 10 no degree dem    
## # … with 490 more rows

If you’re doing inference on a point estimate, you will also need to provide one of p (the true proportion of successes, between 0 and 1), mu (the true mean), med (the true median), or sigma (the true standard deviation). For instance, if the null hypothesis is that the mean number of hours worked per week in our population is 40, we would write:

gss %>%
  specify(response = hours) %>%
  hypothesize(null = "point", mu = 40)

## Response: hours (numeric)
## Null Hypothesis: point
## # A tibble: 500 × 1
##    hours
##    <dbl>
##  1    50
##  2    31
##  3    40
##  4    40
##  5    40
##  6    53
##  7    32
##  8    20
##  9    40
## 10    40
## # … with 490 more rows
…
draw: A value will be sampled from a theoretical distribution with parameters specified in hypothesize() for each replicate. This option is currently only applicable for testing point estimates. This generation type was previously called "simulate", which has been superseded.

Continuing on with our example above, about the average number of hours worked a week, we might write:

set.seed(1)

gss %>%
  specify(response = hours) %>%
  hypothesize(null = "point", mu = 40) %>%
  generate(reps = 1000, type = "bootstrap")

## Response: hours (numeric)
## Null Hypothesis: point
## # A tibble: 500,000 × 2
## # Groups:   replicate [1,000]
##    replicate hours
##        <int> <dbl>
##  1         1 46.6 
##  2         1 43.6 
##  3         1 38.6 
##  4         1 28.6 
##  5         1 38.6 
##  6         1 38.6 
##  7         1  6.62
##  8         1 78.6 
##  9         1 38.6 
## 10         1 38.6 
## # … with 499,990 more rows
In the above example, we take 1000 bootstrap samples to form our null distribution.

Note that, before generate()ing, we’ve set the seed for random number generation with the set.seed() function. When using the infer package for research, or in other cases when exact reproducibility is a priority, this is good practice. infer will respect the random seed specified in the set.seed() function, returning the same result when generate()ing data given an identical seed.

To generate a null distribution for the independence of two variables, we could also randomly reshuffle the pairings of explanatory and response variables to break any existing association. For instance, to generate 1000 replicates that can be used to create a null distribution under the assumption that political party affiliation is not affected by age:

gss %>%
  specify(partyid ~ age) %>%
  hypothesize(null = "independence") %>%
  generate(reps = 1000, type = "permute")

## Response: partyid (factor)
## Explanatory: age (numeric)
## Null Hypothesis: independence
## # A tibble: 500,000 × 3
## # Groups:   replicate [1,000]
##    partyid   age replicate
##    <fct>   <dbl>     <int>
##  1 rep        36         1
##  2 rep        34         1
##  3 dem        24         1
##  4 dem        42         1
##  5 dem        31         1
##  6 ind        32         1
##  7 ind        48         1
##  8 rep        36         1
##  9 dem        30         1
## 10 rep        33         1
## # … with 499,990 more rows

calculate(): Calculating Summary Statistics

calculate() calculates summary statistics from the output of infer core functions. The function takes in a stat argument, which is currently one of “mean”, “median”, “sum”, “sd”, “prop”, “count”, “diff in means”, “diff in medians”, “diff in props”, “Chisq”, “F”, “t”, “z”, “slope”, or “correlation”. For example, continuing our example above to calculate the null distribution of mean hours worked per week:

gss %>%
  specify(response = hours) %>%
  hypothesize(null = "point", mu = 40) %>%
  generate(reps = 1000, type = "bootstrap") %>%
  calculate(stat = "mean")

## Response: hours (numeric)
## Null Hypothesis: point
## # A tibble: 1,000 × 2
##    replicate  stat
##        <int> <dbl>
##  1         1  39.2
##  2         2  39.1
##  3         3  39.0
##  4         4  39.8
##  5         5  41.4
##  6         6  39.4
##  7         7  39.8
##  8         8  40.4
##  9         9  41.5
## 10        10  40.9
## # … with 990 more rows

The output of calculate() here shows us the sample statistic (in this case, the mean) for each of our 1000 replicates. If you’re carrying out inference on differences in means, medians, or proportions, or t and z statistics, you will need to supply an order argument, giving the order in which the explanatory variables should be subtracted. For instance, to find the difference in mean age of those that have a college degree and those that don’t, we might write:

gss %>%
  specify(age ~ college) %>%
  hypothesize(null = "independence") %>%
  generate(reps = 1000, type = "permute") %>%
  calculate("diff in means", order = c("degree", "no degree"))

## Response: age (numeric)
## Explanatory: college (factor)
## Null Hypothesis: independence
## # A tibble: 1,000 × 2
##    replicate   stat
##        <int>  <dbl>
##  1         1 -2.35 
##  2         2 -0.902
##  3         3  0.403
##  4         4 -0.426
##  5         5  0.482
##  6         6 -0.196
##  7         7  1.33 
##  8         8 -1.07 
##  9         9  1.68 
## 10        10  0.888
## # … with 990 more rows
…
observed_fit <- gss %>%
  specify(hours ~ age + college) %>%
  fit()

Now, to generate null distributions for each of these terms, we can fit 1000 models to resamples of the gss dataset, where the response hours is permuted in each. Note that this code is the same as the above except for the addition of the hypothesize and generate step.

null_fits <- gss %>%
  specify(hours ~ age + college) %>%
  hypothesize(null = "independence") %>%
  generate(reps = 1000, type = "permute") %>%
  fit()

null_fits

## # A tibble: 3,000 × 3
## # Groups:   replicate [1,000]
##    replicate term          estimate
##        <int> <chr>            <dbl>
##  1         1 intercept     40.3    
##  2         1 age            0.0166 
##  3         1 collegedegree  1.20   
##  4         2 intercept     41.3    
##  5         2 age            0.00664
##  6         2 collegedegree -0.407  
##  7         3 intercept     42.9    
##  8         3 age           -0.0371 
##  9         3 collegedegree  0.00431
## 10         4 intercept     42.7    
## # … with 2,990 more rows
…
