…
``` r
set.seed(1)

gss_paired <- gss |>
   mutate(
      hours_previous = hours + 5 - rpois(nrow(gss), 4.8),
      diff = hours - hours_previous
   )

gss_paired |>
   select(hours, hours_previous, diff)
```

    ## # A tibble: 500 × 3
    ##    hours hours_previous  diff
    ##    <dbl>          <dbl> <dbl>
    ##  1    50             52    -2
    ##  2    31             32    -1
    ##  3    40             40     0
    ##  4    40             37     3
    ##  5    40             42    -2
    ##  6    53             50     3
    ##  7    32             28     4
    ##  8    20             19     1
    ##  9    40             40     0
    ## 10    40             43    -3
    ## # ℹ 490 more rows
…
