…
``` r
set.seed(1)

gss_paired <- gss |>
   mutate(
      hours_previous = hours + 5 - rpois(nrow(gss), 4.8),
      diff = hours - hours_previous
   )

gss_paired |>
   select(hours, hours_previous, diff)
```

    ## # A tibble: 500 × 3
    ##    hours hours_previous  diff
    ##    <dbl>          <dbl> <dbl>
    ##  1    50             52    -2
    ##  2    31             32    -1
    ##  3    40             40     0
    ##  4    40             37     3
    ##  5    40             42    -2
    ##  6    53             50     3
    ##  7    32             28     4
    ##  8    20             19     1
    ##  9    40             40     0
    ## 10    40             43    -3
    ## # ℹ 490 more rows
…
``` r
# generate the null distribution
null_dist <- 
   gss_paired |> 
   specify(response = diff) |> 
   hypothesize(null = "paired independence") |>
   generate(reps = 1000, type = "permute") |>
   calculate(stat = "mean")
   
null_dist
```

    ## Response: diff (numeric)
    ## Null Hypothesis: paired independence
    ## # A tibble: 1,000 × 2
    ##    replicate   stat
    ##        <int>  <dbl>
    ##  1         1 -0.146
    ##  2         2  0.19 
    ##  3         3  0.042
    ##  4         4  0.034
    ##  5         5 -0.138
    ##  6         6 -0.03 
    ##  7         7  0.174
    ##  8         8  0.066
    ##  9         9  0.01 
    ## 10        10  0.13 
    ## # ℹ 990 more rows
…
