Calculate summary statistics — calculate • infer
…
    Examples

# calculate a null distribution of hours worked per week under
# the null hypothesis that the mean is 40
gss %>%
  specify(response = hours) %>%
  hypothesize(null = "point", mu = 40) %>%
  generate(reps = 200, type = "bootstrap") %>%
  calculate(stat = "mean")
#> Response: hours (numeric)
#> Null Hypothesis: point
#> # A tibble: 200 × 2
#>    replicate  stat
#>        <int> <dbl>
#>  1         1  39.2
#>  2         2  39.4
#>  3         3  40.1
#>  4         4  39.6
#>  5         5  40.8
#>  6         6  39.9
#>  7         7  39.9
#>  8         8  40.8
#>  9         9  39.6
#> 10        10  41.0
#> # … with 190 more rows
…
# calculate a null distribution assuming independence between age
# of respondent and whether they have a college degree
gss %>%
  specify(age ~ college) %>%
  hypothesize(null = "independence") %>%
  generate(reps = 200, type = "permute") %>%
  calculate("diff in means", order = c("degree", "no degree"))
#> Response: age (numeric)
#> Explanatory: college (factor)
#> Null Hypothesis: independence
#> # A tibble: 200 × 2
#>    replicate     stat
#>        <int>    <dbl>
#>  1         1 -2.48   
#>  2         2 -0.699  
#>  3         3 -0.0113 
#>  4         4  0.579  
#>  5         5  0.553  
#>  6         6  1.84   
#>  7         7 -2.31   
#>  8         8 -0.320  
#>  9         9 -0.00250
#> 10        10 -1.78   
#> # … with 190 more rows
…
