…
## Examples

``` r
# generate a null distribution by taking 200 bootstrap samples
gss |>
 specify(response = hours) |>
 hypothesize(null = "point", mu = 40) |>
 generate(reps = 200, type = "bootstrap")
#> Response: hours (numeric)
#> Null Hypothesis: point
#> # A tibble: 100,000 × 2
#> # Groups:   replicate [200]
#>    replicate hours
#>        <int> <dbl>
#>  1         1 38.6 
#>  2         1  8.62
#>  3         1 38.6 
#>  4         1 38.6 
#>  5         1 18.6 
#>  6         1 38.6 
#>  7         1 38.6 
#>  8         1 58.6 
#>  9         1 14.6 
#> 10         1 38.6 
#> # ℹ 99,990 more rows

# generate a null distribution for the independence of
# two variables by permuting their values 200 times
gss |>
 specify(partyid ~ age) |>
 hypothesize(null = "independence") |>
 generate(reps = 200, type = "permute")
#> Dropping unused factor levels DK from the supplied response variable
#> 'partyid'.
#> Response: partyid (factor)
#> Explanatory: age (numeric)
#> Null Hypothesi...
#> # A tibble: 100,000 × 3
#> # Groups:   replicate [200]
#>    partyid   age replicate
#>    <fct>   <dbl>     <int>
#>  1 dem        36         1
#>  2 dem        34         1
#>  3 ind        24         1
#>  4 dem        42         1
#>  5 ind        31         1
#>  6 rep        32         1
#>  7 ind        48         1
#>  8 ind        36         1
#>  9 ind        30         1
#> 10 rep        33         1
#> # ℹ 99,990 more rows

# generate a null distribution via sampling from a
# binomial distribution 200 times
gss |>
specify(response = sex, success = "female") |>
  hypothesize(null = "point", p = .5) |>
  generate(reps = 200, type = "draw") |>
  calculate(stat = "z")
#> Response: sex (factor)
#> Null Hypothesis: point
#> # A tibble: 200 × 2
#>    replicate    stat
#>        <int>   <dbl>
#>  1         1  0.537 
#>  2         2  0.447 
#>  3         3 -0.447 
#>  4         4 -0.984 
#>  5         5  1.70  
#>  6         6  1.52  
#>  7         7  0.0894
#>  8         8 -1.25  
#>  9         9 -0.268 
#> 10        10 -0.805 
#> # ℹ 190 more rows
…
