…
# fit 100 models to resamples of the gss dataset, where the response
# `hours` is permuted in each. note that this code is the same as
# the above except for the addition of the `generate` step.
null_fits <- gss |>
  specify(hours ~ age + college) |>
  hypothesize(null = "independence") |>
  generate(reps = 100, type = "permute") |>
  fit()

null_fits
#> # A tibble: 300 × 3
#> # Groups:   replicate [100]
#>    replicate term           estimate
#>        <int> <chr>             <dbl>
#>  1         1 intercept     42.0     
#>  2         1 age           -0.00835 
#>  3         1 collegedegree -0.790   
#>  4         2 intercept     41.5     
#>  5         2 age           -0.000968
#>  6         2 collegedegree -0.329   
#>  7         3 intercept     41.4     
#>  8         3 age            0.0131  
#>  9         3 collegedegree -1.50    
#> 10         4 intercept     42.0     
#> # ℹ 290 more rows
…
