…
## Examples

``` r
# hypothesize independence of two variables
gss |>
 specify(college ~ partyid, success = "degree") |>
 hypothesize(null = "independence")
#> Dropping unused factor levels DK from the supplied explanatory
#> variable 'partyid'.
#> Response: college (factor)
#> Explanatory: partyid (factor)
#> Null Hypoth...
#> # A tibble: 500 × 2
#>    college   partyid
#>    <fct>     <fct>  
#>  1 degree    ind    
#>  2 no degree rep    
#>  3 degree    ind    
#>  4 no degree ind    
#>  5 degree    rep    
#>  6 no degree rep    
#>  7 no degree dem    
#>  8 degree    ind    
#>  9 degree    rep    
#> 10 no degree dem    
#> # ℹ 490 more rows

# hypothesize a mean number of hours worked per week of 40
gss |>
  specify(response = hours) |>
  hypothesize(null = "point", mu = 40)
#> Response: hours (numeric)
#> Null Hypothesis: point
#> # A tibble: 500 × 1
#>    hours
#>    <dbl>
#>  1    50
#>  2    31
#>  3    40
#>  4    40
#>  5    40
#>  6    53
#>  7    32
#>  8    20
#>  9    40
#> 10    40
#> # ℹ 490 more rows
…
