Perform repeated sampling — rep_sample_n • infer
…
# take 1000 samples of size n = 50, without replacement
slices <- gss %>%
  rep_sample_n(size = 50, reps = 1000)

slices

#> # A tibble: 50,000 x 12
#> # Groups:   replicate [1,000]
#>    replicate  year   age sex   college partyid hompop hours income class finrela
#>        <int> <dbl> <dbl> <fct> <fct>   <fct>    <dbl> <dbl> <ord>  <fct> <fct>  
#>  1         1  2000    32 fema… no deg… dem          2    40 $1500… lowe… below …
#>  2         1  1982    45 fema… no deg… ind          3    40 $2000… work… average
#>  3         1  1984    37 fema… no deg… dem          4    15 $2500… work… average
#>  4         1  2008    47 fema… degree  ind          1    37 $2500… midd… above …
#>  5         1  1991    40 fema… no deg… dem          2    15 $1500… work… below …
#>  6         1  1998    32 male  degree  dem          4    40 $2500… work… average
#>  7         1  1984    27 male  no deg… rep          3    50 $1500… midd… average
#>  8         1  1994    30 fema… no deg… dem          3    44 $2500… work… average
#>  9         1  1988    40 male  no deg… dem          5    50 $2500… work… below …
#> 10         1  2018    37 male  degree  ind          4    40 $2500… work… above …
#> # … with 49,990 more rows, and 1 more variable: weight <dbl>
…
