…
# take 1000 samples of size n = 50, without replacement
slices <- gss |>
  rep_slice_sample(n = 50, reps = 1000)

slices
#> # A tibble: 50,000 × 12
#> # Groups:   replicate [1,000]
#>    replicate  year   age sex    college   partyid hompop hours income  
#>        <int> <dbl> <dbl> <fct>  <fct>     <fct>    <dbl> <dbl> <ord>   
#>  1         1  1994    49 female no degree ind          4    40 $25000 …
#>  2         1  1985    51 female no degree dem          4    28 $25000 …
#>  3         1  2010    51 female degree    rep          4    60 $25000 …
#>  4         1  2016    58 female no degree rep          3    22 $25000 …
#>  5         1  2010    60 male   degree    ind          2    45 $25000 …
#>  6         1  2004    48 male   no degree rep          4    89 $25000 …
#>  7         1  2000    68 male   no degree dem          2    60 $25000 …
#>  8         1  1998    58 female no degree ind          4    24 $10000 …
#>  9         1  1996    49 female degree    dem          3    60 $25000 …
#> 10         1  1989    29 female degree    dem          4    30 $25000 …
#> # ℹ 49,990 more rows
#> # ℹ 3 more variables: class <fct>, finrela <fct>, weight <dbl>
…
