…
# \donttest{
# to visualize distributions of coefficients for multiple
# explanatory variables, use a `fit()`-based workflow

# fit 1000 linear models with the `hours` variable permuted
null_fits <- gss |>
 specify(hours ~ age + college) |>
 hypothesize(null = "independence") |>
 generate(reps = 1000, type = "permute") |>
 fit()

null_fits
#> # A tibble: 3,000 × 3
#> # Groups:   replicate [1,000]
#>    replicate term          estimate
#>        <int> <chr>            <dbl>
#>  1         1 intercept      40.7   
#>  2         1 age             0.0124
#>  3         1 collegedegree   0.469 
#>  4         2 intercept      37.2   
#>  5         2 age             0.105 
#>  6         2 collegedegree  -0.0498
#>  7         3 intercept      40.3   
#>  8         3 age             0.0240
#>  9         3 collegedegree   0.379 
#> 10         4 intercept      41.0   
#> # ℹ 2,990 more rows
…
