Visualize statistical inference — visualize • infer
…
# \donttest{
# to visualize distributions of coefficients for multiple
# explanatory variables, use a `fit()`-based workflow

# fit 1000 models with the `hours` variable permuted
null_fits <- gss |>
 specify(hours ~ age + college) |>
 hypothesize(null = "independence") |>
 generate(reps = 1000, type = "permute") |>
 fit()

null_fits
#> # A tibble: 3,000 × 3
#> # Groups:   replicate [1,000]
#>    replicate term          estimate
#>        <int> <chr>            <dbl>
#>  1         1 intercept     44.5    
#>  2         1 age           -0.0477 
#>  3         1 collegedegree -3.37   
#>  4         2 intercept     41.7    
#>  5         2 age            0.00356
#>  6         2 collegedegree -1.29   
#>  7         3 intercept     41.3    
#>  8         3 age            0.00920
#>  9         3 collegedegree -0.833  
#> 10         4 intercept     42.7    
#> # ℹ 2,990 more rows
…
