Examples using mtcars data
…
One numerical variable (mean)

mtcars %>%
  specify(response = mpg) %>% # formula alt: mpg ~ NULL
  hypothesize(null = "point", mu = 25) %>% 
  generate(reps = 100, type = "bootstrap") %>% 
  calculate(stat = "mean")

## # A tibble: 100 x 2
##    replicate     stat
##        <int>    <dbl>
##  1         1 26.60625
##  2         2 25.06875
##  3         3 25.19375
##  4         4 24.73125
##  5         5 24.63750
##  6         6 25.79688
##  7         7 24.72188
##  8         8 25.63125
##  9         9 24.97500
## 10        10 25.05625
## # ... with 90 more rows

One numerical variable (median)

mtcars %>%
  specify(response = mpg) %>% # formula alt: mpg ~ NULL
  hypothesize(null = "point", med = 26) %>% 
  generate(reps = 100, type = "bootstrap") %>% 
  calculate(stat = "median")

## # A tibble: 100 x 2
##    replicate  stat
##        <int> <dbl>
##  1         1 28.20
##  2         2 27.15
##  3         3 26.25
##  4         4 26.00
##  5         5 26.50
##  6         6 24.50
##  7         7 26.00
##  8         8 28.20
##  9         9 28.20
## 10        10 23.20
## # ... with 90 more rows

One numerical variable (standard deviation)

mtcars %>%
  specify(response = mpg) %>% # formula alt: mpg ~ NULL
  hypothesize(null = "point", sigma = 5) %>% 
  generate(reps = 100, type = "bootstrap") %>% 
  calculate(stat = "sd")

## # A tibble: 100 x 2
##    replicate     stat
##        <int>    <dbl>
##  1         1 5.880866
##  2         2 6.271324
##  3         3 5.084376
##  4         4 6.905348
##  5         5 5.957997
##  6         6 6.011192
##  7         7 6.748736
##  8         8 5.144711
##  9         9 6.064638
## 10        10 5.632150
## # ... with 90 more rows
…
mtcars %>%
  specify(response = am, success = "1") %>% # formula alt: am ~ NULL
  hypothesize(null = "point", p = .25) %>% 
  generate(reps = 100, type = "simulate") %>% 
  calculate(stat = "prop")

Two categorical (2 level) variables

mtcars %>%
  specify(am ~ vs, success = "1") %>% # alt: response = am, explanatory = vs
  hypothesize(null = "independence") %>%
  generate(reps = 100, type = "permute") %>%
  calculate(stat = "diff in props", order = c("0", "1"))

## # A tibble: 100 x 2
##    replicate        stat
##        <int>       <dbl>
##  1         1 -0.42063492
##  2         2 -0.16666667
##  3         3 -0.42063492
##  4         4 -0.03968254
##  5         5  0.08730159
##  6         6 -0.03968254
##  7         7 -0.03968254
##  8         8 -0.03968254
##  9         9  0.08730159
## 10        10 -0.16666667
## # ... with 90 more rows

One categorical (>2 level) - GoF

mtcars %>%
  specify(cyl ~ NULL) %>% # alt: response = cyl
  hypothesize(null = "point", p = c("4" = .5, "6" = .25, "8" = .25)) %>%
  generate(reps = 100, type = "simulate") %>%
  calculate(stat = "Chisq")

## # A tibble: 100 x 2
##    replicate   stat
##       <fctr>  <dbl>
##  1         1 6.7500
##  2         2 1.6875
##  3         3 3.1875
##  4         4 1.6875
##  5         5 6.0000
##  6         6 2.6875
##  7         7 4.7500
##  8         8 0.7500
##  9         9 0.6875
## 10        10 3.6875
## # ... with 90 more rows

Two categorical (>2 level) variables

mtcars %>%
  specify(cyl ~ am) %>% # alt: response = cyl, explanatory = am
  hypothesize(null = "independence") %>%
  generate(reps = 100, type = "permute") %>%
  calculate(stat = "Chisq")

## # A tibble: 100 x 2
##    replicate      stat
##       <fctr>     <dbl>
##  1         1 1.3376098
##  2         2 1.6337347
##  3         3 1.6337347
##  4         4 2.6297913
##  5         5 3.8950523
##  6         6 1.7414165
##  7         7 0.1261896
##  8         8 1.7414165
##  9         9 1.3376098
## 10        10 1.3376098
## # ... with 90 more rows

One numerical variable one categorical (2 levels) (diff in means)

mtcars %>%
  specify(mpg ~ am) %>% # alt: response = mpg, explanatory = am
  hypothesize(null = "independence") %>%
  generate(reps = 100, type = "permute") %>%
  calculate(stat = "diff in means", order = c("0", "1"))

## # A tibble: 100 x 2
##    replicate       stat
##        <int>      <dbl>
##  1         1 -1.1040486
##  2         2  0.2174089
##  3         3 -1.0781377
##  4         4 -3.7987854
##  5         5  3.0805668
##  6         6  0.4894737
##  7         7  2.3421053
##  8         8  4.1040486
##  9         9 -1.8554656
## 10        10 -0.2101215
## # ... with 90 more rows

One numerical variable one categorical (2 levels) (diff in medians)

mtcars %>%
  specify(mpg ~ am) %>% # alt: response = mpg, explanatory = am
  hypothesize(null = "independence") %>%
  generate(reps = 100, type = "permute") %>%
  calculate(stat = "diff in medians", order = c("0", "1"))

## # A tibble: 100 x 2
##    replicate  stat
##        <int> <dbl>
##  1         1   0.5
##  2         2  -1.1
##  3         3   5.2
##  4         4   1.8
##  5         5   0.5
##  6         6   3.3
##  7         7  -1.6
##  8         8  -2.3
##  9         9   2.9
## 10        10  -0.5
## # ... with 90 more rows

One numerical one categorical (>2 levels) - ANOVA

mtcars %>%
  specify(mpg ~ cyl) %>% # alt: response = mpg, explanatory = cyl
  hypothesize(null = "independence") %>%
  generate(reps = 100, type = "permute") %>%
  calculate(stat = "F")

## # A tibble: 100 x 2
##    replicate      stat
##        <int>     <dbl>
##  1         1 1.4326103
##  2         2 1.6527188
##  3         3 0.3178257
##  4         4 0.3925536
##  5         5 1.0534391
##  6         6 0.8257242
##  7         7 1.3158305
##  8         8 0.8331259
##  9         9 0.1444885
## 10        10 0.3650422
## # ... with 90 more rows

Two numerical vars - SLR

mtcars %>%
  specify(mpg ~ hp) %>% # alt: response = mpg, explanatory = cyl
  hypothesize(null = "independence") %>%
  generate(reps = 100, type = "permute") %>%
  calculate(stat = "slope")

## # A tibble: 100 x 2
##    replicate         stat
##        <int>        <dbl>
##  1         1 -0.015114534
##  2         2  0.002235046
##  3         3 -0.011975785
##  4         4  0.002915085
##  5         5  0.020257116
##  6         6 -0.007295797
##  7         7 -0.024632339
##  8         8  0.005549465
##  9         9  0.010919786
## 10        10  0.017639205
## # ... with 90 more rows

Confidence intervals

One numerical (one mean)

mtcars %>%
  specify(response = mpg) %>%
  generate(reps = 100, type = "bootstrap") %>%
  calculate(stat = "mean")

## # A tibble: 100 x 2
##    replicate     stat
##        <int>    <dbl>
##  1         1 19.57500
##  2         2 21.78125
##  3         3 18.67500
##  4         4 19.15625
##  5         5 21.62500
##  6         6 19.89688
##  7         7 20.65312
##  8         8 19.28438
##  9         9 21.21875
## 10        10 21.33125
## # ... with 90 more rows

One numerical (one median)

mtcars %>%
  specify(response = mpg) %>%
  generate(reps = 100, type = "bootstrap") %>%
  calculate(stat = "median")

## # A tibble: 100 x 2
##    replicate  stat
##        <int> <dbl>
##  1         1 19.20
##  2         2 20.10
##  3         3 21.00
##  4         4 17.80
##  5         5 20.10
##  6         6 19.20
##  7         7 18.40
##  8         8 19.20
##  9         9 19.20
## 10        10 17.95
## # ... with 90 more rows

One numerical (standard deviation)

mtcars %>%
  specify(response = mpg) %>%
  generate(reps = 100, type = "bootstrap") %>%
  calculate(stat = "sd")

## # A tibble: 100 x 2
##    replicate     stat
##        <int>    <dbl>
##  1         1 5.283984
##  2         2 6.741122
##  3         3 5.289878
##  4         4 5.406746
##  5         5 5.559784
##  6         6 5.649593
##  7         7 6.174243
##  8         8 6.401058
##  9         9 6.306428
## 10        10 6.109534
## # ... with 90 more rows
One categorical (one proportion)

mtcars %>%
  specify(response = am, success = "1") %>%
  generate(reps = 100, type = "bootstrap") %>%
  calculate(stat = "prop")

One numerical variable one categorical (2 levels) (diff in means)

mtcars %>%
  specify(mpg ~ am) %>%
  generate(reps = 100, type = "bootstrap") %>%
  calculate(stat = "diff in means", order = c("0", "1"))

## # A tibble: 100 x 2
##    replicate      stat
##        <int>     <dbl>
##  1         1 -6.373333
##  2         2 -8.936437
##  3         3 -7.307692
##  4         4 -4.302727
##  5         5 -6.582727
##  6         6 -9.628627
##  7         7 -8.111905
##  8         8 -7.851691
##  9         9 -4.603175
## 10        10 -9.100000
## # ... with 90 more rows

Two categorical variables (diff in proportions)

mtcars %>%
  specify(am ~ vs, success = "1") %>%
  generate(reps = 100, type = "bootstrap") %>%
  calculate(stat = "diff in props", order = c("0", "1"))

## # A tibble: 100 x 2
##    replicate        stat
##        <int>       <dbl>
##  1         1 -0.40476190
##  2         2 -0.12145749
##  3         3 -0.03030303
##  4         4 -0.17004049
##  5         5 -0.20346320
##  6         6 -0.23636364
##  7         7 -0.31250000
##  8         8  0.00000000
##  9         9 -0.01960784
## 10        10 -0.37651822
## # ... with 90 more rows

Two numerical vars - SLR

mtcars %>%
  specify(mpg ~ hp) %>% 
  generate(reps = 100, type = "bootstrap") %>%
  calculate(stat = "slope")

## # A tibble: 100 x 2
##    replicate        stat
##        <int>       <dbl>
##  1         1 -0.06039075
##  2         2 -0.05762805
##  3         3 -0.05572732
##  4         4 -0.07180227
##  5         5 -0.10133809
##  6         6 -0.07969898
##  7         7 -0.07059600
##  8         8 -0.04718719
##  9         9 -0.07521713
## 10        10 -0.08670363
## # ... with 90 more rows
