Fit linear models to infer objects — fit.infer • infer
…
# fit 100 models to resamples of the gss dataset, where the response 
# `hours` is permuted in each. note that this code is the same as 
# the above except for the addition of the `generate` step.
null_fits <- gss %>%
  specify(hours ~ age + college) %>%
  hypothesize(null = "independence") %>%
  generate(reps = 100, type = "permute") %>%
  fit()

null_fits
#> # A tibble: 300 x 3
#> # Groups:   replicate [100]
#>    replicate term          estimate
#>        <int> <chr>            <dbl>
#>  1         1 intercept     43.4    
#>  2         1 age           -0.0457 
#>  3         1 collegedegree -0.481  
#>  4         2 intercept     41.2    
#>  5         2 age            0.00565
#>  6         2 collegedegree -0.212  
#>  7         3 intercept     40.3    
#>  8         3 age            0.0314 
#>  9         3 collegedegree -0.510  
#> 10         4 intercept     40.5    
#> # … with 290 more rows
…
