…
# fit 100 models to resamples of the gss dataset, where the response
# `hours` is permuted in each. note that this code is the same as
# the above except for the addition of the `generate` step.
null_fits <- gss |>
  specify(hours ~ age + college) |>
  hypothesize(null = "independence") |>
  generate(reps = 100, type = "permute") |>
  fit()

null_fits
#> # A tibble: 300 × 3
#> # Groups:   replicate [100]
#>    replicate term          estimate
#>        <int> <chr>            <dbl>
#>  1         1 intercept      39.8   
#>  2         1 age             0.0479
#>  3         1 collegedegree  -1.01  
#>  4         2 intercept      42.6   
#>  5         2 age            -0.0276
#>  6         2 collegedegree  -0.304 
#>  7         3 intercept      39.6   
#>  8         3 age             0.0552
#>  9         3 collegedegree  -1.17  
#> 10         4 intercept      43.1   
#> # ℹ 290 more rows
…
