Generate resamples, permutations, or simulations — generate • infer
…
    Other core functions: 
calculate(),
hypothesize(),
specify()

    Examples

# generate a null distribution by taking 200 bootstrap samples
gss %>%
 specify(response = hours) %>%
 hypothesize(null = "point", mu = 40) %>%
 generate(reps = 200, type = "bootstrap")
#> Response: hours (numeric)
#> Null Hypothesis: point
#> # A tibble: 100,000 × 2
#> # Groups:   replicate [200]
#>    replicate hours
#>        <int> <dbl>
#>  1         1  18.6
#>  2         1  18.6
#>  3         1  58.6
#>  4         1  38.6
#>  5         1  38.6
#>  6         1  38.6
#>  7         1  48.6
#>  8         1  40.6
#>  9         1  54.6
#> 10         1  41.6
#> # … with 99,990 more rows

# generate a null distribution for the independence of
# two variables by permuting their values 200 times
gss %>%
 specify(partyid ~ age) %>%
 hypothesize(null = "independence") %>%
 generate(reps = 200, type = "permute")
#> Dropping unused factor levels DK from the supplied response variable 'partyid'.
#> Response: partyid (factor)
#> Explanatory: age (numeric)
#> Null Hypothesis: independence
#> # A tibble: 100,000 × 3
#> # Groups:   replicate [200]
#>    partyid   age replicate
#>    <fct>   <dbl>     <int>
#>  1 rep        36         1
#>  2 ind        34         1
#>  3 rep        24         1
#>  4 dem        42         1
#>  5 ind        31         1
#>  6 ind        32         1
#>  7 dem        48         1
#>  8 dem        36         1
#>  9 rep        30         1
#> 10 dem        33         1
#> # … with 99,990 more rows

# generate a null distribution via sampling from a
# binomial distribution 200 times
gss %>%
specify(response = sex, success = "female") %>%
  hypothesize(null = "point", p = .5) %>%
  generate(reps = 200, type = "draw") %>%
  calculate(stat = "z")
#> Response: sex (factor)
#> Null Hypothesis: point
#> # A tibble: 200 × 2
#>    replicate    stat
#>    <fct>       <dbl>
#>  1 1          0.537 
#>  2 2          1.52  
#>  3 3          1.97  
#>  4 4         -0.0894
#>  5 5          1.16  
#>  6 6         -0.894 
#>  7 7         -0.626 
#>  8 8          0.179 
#>  9 9          0.894 
#> 10 10         1.61  
#> # … with 190 more rows
…
