Compute p-value — get_p_value • infer
…
# fit 100 models to resamples of the gss dataset, where the response 
# `hours` is permuted in each. note that this code is the same as 
# the above except for the addition of the `generate` step.
null_fits <- gss %>%
  specify(hours ~ age + college) %>%
  hypothesize(null = "independence") %>%
  generate(reps = 100, type = "permute") %>%
  fit()

null_fits
#> # A tibble: 300 x 3
#> # Groups:   replicate [100]
#>    replicate term          estimate
#>        <int> <chr>            <dbl>
#>  1         1 intercept      40.1   
#>  2         1 age             0.0287
#>  3         1 collegedegree   0.224 
#>  4         2 intercept      45.4   
#>  5         2 age            -0.101 
#>  6         2 collegedegree   0.109 
#>  7         3 intercept      40.0   
#>  8         3 age             0.0344
#>  9         3 collegedegree  -0.0276
#> 10         4 intercept      41.8   
#> # … with 290 more rows
…
