Perform repeated sampling — rep_sample_n • infer
…
# take 1000 samples of size n = 50, without replacement
slices <- gss %>%
  rep_slice_sample(n = 50, reps = 1000)

slices
#> # A tibble: 50,000 × 12
#> # Groups:   replicate [1,000]
#>    replicate  year   age sex   college partyid hompop hours income class finrela
#>        <int> <dbl> <dbl> <fct> <fct>   <fct>    <dbl> <dbl> <ord>  <fct> <fct>  
#>  1         1  1982    43 male  degree  dem          3    40 $2500… work… below …
#>  2         1  1982    37 fema… no deg… ind          5    40 $2500… midd… above …
#>  3         1  1987    40 fema… no deg… dem          4    40 $6000… work… below …
#>  4         1  1988    26 fema… no deg… dem          4    40 $2000… work… average
#>  5         1  2006    42 male  degree  ind          3    20 $2500… midd… average
#>  6         1  1998    27 fema… no deg… rep          3    40 $1500… work… average
#>  7         1  2002    47 fema… degree  rep          3    40 $2500… midd… above …
#>  8         1  1998    29 male  no deg… ind          4    48 $2500… work… above …
#>  9         1  1988    40 male  no deg… dem          5    50 $2500… work… below …
#> 10         1  2004    35 male  no deg… rep          2    40 $2500… work… below …
#> # … with 49,990 more rows, and 1 more variable: weight <dbl>
…
