Add information about confidence interval — shade_confidence_interval • infer
…
# \donttest{
# to visualize distributions of coefficients for multiple
# explanatory variables, use a `fit()`-based workflow

# fit 1000 linear models with the `hours` variable permuted
null_fits <- gss %>%
 specify(hours ~ age + college) %>%
 hypothesize(null = "independence") %>%
 generate(reps = 1000, type = "permute") %>%
 fit()

null_fits
#> # A tibble: 3,000 × 3
#> # Groups:   replicate [1,000]
#>    replicate term          estimate
#>        <int> <chr>            <dbl>
#>  1         1 intercept      40.8   
#>  2         1 age             0.0153
#>  3         1 collegedegree  -0.0626
#>  4         2 intercept      40.3   
#>  5         2 age             0.0278
#>  6         2 collegedegree  -0.0655
#>  7         3 intercept      42.8   
#>  8         3 age            -0.0348
#>  9         3 collegedegree   0.0726
#> 10         4 intercept      40.7   
#> # ℹ 2,990 more rows
…
