…
# \donttest{
# to visualize distributions of coefficients for multiple
# explanatory variables, use a `fit()`-based workflow

# fit 1000 linear models with the `hours` variable permuted
null_fits <- gss |>
 specify(hours ~ age + college) |>
 hypothesize(null = "independence") |>
 generate(reps = 1000, type = "permute") |>
 fit()

null_fits
#> # A tibble: 3,000 × 3
#> # Groups:   replicate [1,000]
#>    replicate term          estimate
#>        <int> <chr>            <dbl>
#>  1         1 intercept      38.6   
#>  2         1 age             0.0735
#>  3         1 collegedegree  -0.435 
#>  4         2 intercept      43.5   
#>  5         2 age            -0.0433
#>  6         2 collegedegree  -1.19  
#>  7         3 intercept      42.1   
#>  8         3 age            -0.0171
#>  9         3 collegedegree  -0.182 
#> 10         4 intercept      39.6   
#> # ℹ 2,990 more rows
…
