Shade histogram area beyond an observed statistic — shade_p_value • infer
…
# \donttest{
# to visualize distributions of coefficients for multiple
# explanatory variables, use a `fit()`-based workflow

# fit 1000 linear models with the `hours` variable permuted
null_fits <- gss %>%
 specify(hours ~ age + college) %>%
 hypothesize(null = "independence") %>%
 generate(reps = 1000, type = "permute") %>%
 fit()
 
null_fits
#> # A tibble: 3,000 × 3
#> # Groups:   replicate [1,000]
#>    replicate term          estimate
#>        <int> <chr>            <dbl>
#>  1         1 intercept      43.1   
#>  2         1 age            -0.0485
#>  3         1 collegedegree   0.562 
#>  4         2 intercept      42.1   
#>  5         2 age            -0.0180
#>  6         2 collegedegree   0.0745
#>  7         3 intercept      36.4   
#>  8         3 age             0.121 
#>  9         3 collegedegree   0.402 
#> 10         4 intercept      42.6   
#> # … with 2,990 more rows
…
