…
## See also

Other core functions:
[`calculate()`](https://infer.tidymodels.org/dev/reference/calculate.md),
[`generate()`](https://infer.tidymodels.org/dev/reference/generate.md),
[`hypothesize()`](https://infer.tidymodels.org/dev/reference/hypothesize.md)

## Examples

``` r
# specifying for a point estimate on one variable
gss |>
   specify(response = age)
#> Response: age (numeric)
#> # A tibble: 500 × 1
#>      age
#>    <dbl>
#>  1    36
#>  2    34
#>  3    24
#>  4    42
#>  5    31
#>  6    32
#>  7    48
#>  8    36
#>  9    30
#> 10    33
#> # ℹ 490 more rows

# specify a relationship between variables as a formula...
gss |>
  specify(age ~ partyid)
#> Dropping unused factor levels DK from the supplied explanatory
#> variable 'partyid'.
#> Response: age (numeric)
#> Explanatory: partyid (factor)
#> # A tibble: 500 × 2
#>      age partyid
#>    <dbl> <fct>  
#>  1    36 ind    
#>  2    34 rep    
#>  3    24 ind    
#>  4    42 ind    
#>  5    31 rep    
#>  6    32 rep    
#>  7    48 dem    
#>  8    36 ind    
#>  9    30 rep    
#> 10    33 dem    
#> # ℹ 490 more rows

# ...or with named arguments!
gss |>
  specify(response = age, explanatory = partyid)
#> Dropping unused factor levels DK from the supplied explanatory
#> variable 'partyid'.
#> Response: age (numeric)
#> Explanatory: partyid (factor)
#> # A tibble: 500 × 2
#>      age partyid
#>    <dbl> <fct>  
#>  1    36 ind    
#>  2    34 rep    
#>  3    24 ind    
#>  4    42 ind    
#>  5    31 rep    
#>  6    32 rep    
#>  7    48 dem    
#>  8    36 ind    
#>  9    30 rep    
#> 10    33 dem    
#> # ℹ 490 more rows
…
