Visualize statistical inference — visualize • infer
…
# \donttest{
# to visualize distributions of coefficients for multiple
# explanatory variables, use a `fit()`-based workflow

# fit 1000 models with the `hours` variable permuted
null_fits <- gss %>%
 specify(hours ~ age + college) %>%
 hypothesize(null = "independence") %>%
 generate(reps = 1000, type = "permute") %>%
 fit()
 
null_fits
#> # A tibble: 3,000 × 3
#> # Groups:   replicate [1,000]
#>    replicate term          estimate
#>        <int> <chr>            <dbl>
#>  1         1 intercept      40.6   
#>  2         1 age             0.0234
#>  3         1 collegedegree  -0.379 
#>  4         2 intercept      43.9   
#>  5         2 age            -0.0584
#>  6         2 collegedegree  -0.496 
#>  7         3 intercept      38.5   
#>  8         3 age             0.0789
#>  9         3 collegedegree  -0.810 
#> 10         4 intercept      43.0   
#> # … with 2,990 more rows
…
