…
Note that the function returns the model coefficients as `estimate`
rather than their associated `t`-statistics as `stat`.

If passed a
[`generate()`](https://infer.tidymodels.org/dev/reference/generate.md)d
object, the model will be fitted to each replicate.

``` r
gss %>%
  specify(hours ~ age + college) %>%
  hypothesize(null = "independence") %>%
  generate(reps = 100, type = "permute") %>%
  fit()
#> # A tibble: 300 x 3
#> # Groups:   replicate [100]
#>    replicate term          estimate
#>        <int> <chr>            <dbl>
#>  1         1 intercept     44.4    
#>  2         1 age           -0.0767 
#>  3         1 collegedegree  0.121  
#>  4         2 intercept     41.8    
#>  5         2 age            0.00344
#>  6         2 collegedegree -1.59   
#>  7         3 intercept     38.3    
#>  8         3 age            0.0761 
#>  9         3 collegedegree  0.136  
#> 10         4 intercept     43.1    
#> # … with 290 more rows
```

If `type = "permute"`, a set of unquoted column names in the data to
permute (independently of each other) can be passed via the `variables`
argument to `generate`. It defaults to only the response variable.

``` r
gss %>%
  specify(hours ~ age + college) %>%
  hypothesize(null = "independence") %>%
  generate(reps = 100, type = "permute", variables = c(age, college)) %>%
  fit()
#> # A tibble: 300 x 3
#> # Groups:   replicate [100]
#>    replicate term          estimate
#>        <int> <chr>            <dbl>
#>  1         1 intercept      39.4   
#>  2         1 age             0.0748
#>  3         1 collegedegree  -2.98  
#>  4         2 intercept      42.8   
#>  5         2 age            -0.0190
#>  6         2 collegedegree  -1.83  
#>  7         3 intercept      40.4   
#>  8         3 age             0.0354
#>  9         3 collegedegree  -1.31  
#> 10         4 intercept      40.9   
#> # … with 290 more rows
```
…
