…
One numerical variable (mean)

mtcars %>%
  specify(response = mpg) %>% # formula alt: mpg ~ NULL
  hypothesize(null = "point", mu = 25) %>% 
  generate(reps = 100, type = "bootstrap") %>% 
  calculate(stat = "mean")

## # A tibble: 100 x 2
##    replicate     stat
##        <int>    <dbl>
##  1         1 25.78438
##  2         2 26.10938
##  3         3 23.51875
##  4         4 23.37813
##  5         5 24.25938
##  6         6 26.22813
##  7         7 24.57500
##  8         8 23.50938
##  9         9 26.45000
## 10        10 25.44688
## # ... with 90 more rows

One numerical variable (median)

mtcars %>%
  specify(response = mpg) %>% # formula alt: mpg ~ NULL
  hypothesize(null = "point", med = 26) %>% 
  generate(reps = 100, type = "bootstrap") %>% 
  calculate(stat = "median")

## # A tibble: 100 x 2
##    replicate  stat
##        <int> <dbl>
##  1         1 20.10
##  2         2 19.20
##  3         3 19.45
##  4         4 19.20
##  5         5 19.20
##  6         6 20.10
##  7         7 21.00
##  8         8 20.05
##  9         9 17.10
## 10        10 19.20
## # ... with 90 more rows

One numerical variable (standard deviation)

mtcars %>%
  specify(response = mpg) %>% # formula alt: mpg ~ NULL
  hypothesize(null = "point", sigma = 5) %>% 
  generate(reps = 100, type = "bootstrap") %>% 
  calculate(stat = "sd")

## # A tibble: 100 x 2
##    replicate     stat
##        <int>    <dbl>
##  1         1 5.438568
##  2         2 5.773172
##  3         3 5.595505
##  4         4 5.627808
##  5         5 6.068041
##  6         6 5.843737
##  7         7 6.184501
##  8         8 6.111965
##  9         9 5.908383
## 10        10 4.626671
## # ... with 90 more rows

One categorical (2 level) variable

mtcars %>%
  specify(response = am, success = "1") %>% # formula alt: am ~ NULL
  hypothesize(null = "point", p = .25) %>% 
  generate(reps = 100, type = "simulate") %>% 
  calculate(stat = "prop")

## # A tibble: 100 x 2
##    replicate    stat
##       <fctr>   <dbl>
##  1         1 0.28125
##  2         2 0.15625
##  3         3 0.37500
##  4         4 0.21875
##  5         5 0.15625
##  6         6 0.21875
##  7         7 0.21875
##  8         8 0.18750
##  9         9 0.31250
## 10        10 0.25000
## # ... with 90 more rows

Two categorical (2 level) variables

mtcars %>%
  specify(am ~ vs, success = "1") %>% # alt: response = am, explanatory = vs
  hypothesize(null = "independence") %>%
  generate(reps = 100, type = "permute") %>%
  calculate(stat = "diff in props")

## # A tibble: 100 x 2
##    replicate         stat
##        <int>        <dbl>
##  1         1 -0.063492063
##  2         2  0.166666667
##  3         3 -0.087301587
##  4         4  0.007936508
##  5         5 -0.174603175
##  6         6  0.023809524
##  7         7 -0.142857143
##  8         8  0.111111111
##  9         9 -0.103174603
## 10        10  0.111111111
## # ... with 90 more rows

One categorical (>2 level) - GoF

mtcars %>%
  specify(cyl ~ NULL) %>% # alt: response = cyl
  hypothesize(null = "point", p = c("4" = .5, "6" = .25, "8" = .25)) %>%
  generate(reps = 100, type = "simulate") %>%
  calculate(stat = "Chisq")

## # A tibble: 100 x 2
##    replicate   stat
##       <fctr>  <dbl>
##  1         1 1.1875
##  2         2 0.6875
##  3         3 0.6875
##  4         4 0.0000
##  5         5 1.6875
##  6         6 1.0000
##  7         7 1.1875
##  8         8 1.6875
##  9         9 3.1875
## 10        10 0.7500
## # ... with 90 more rows

Two categorical (>2 level) variables

mtcars %>%
  specify(cyl ~ am) %>% # alt: response = cyl, explanatory = am
  hypothesize(null = "independence") %>%
  generate(reps = 100, type = "permute") %>%
  calculate(stat = "Chisq")

## # A tibble: 100 x 2
##    replicate       stat
##        <int>      <dbl>
##  1         1  0.6556251
##  2         2  6.2967489
##  3         3  1.7046252
##  4         4 21.1770826
##  5         5  8.0555515
##  6         6  7.3594896
##  7         7  2.8038768
##  8         8  4.5968347
##  9         9  6.4765550
## 10        10  0.9363268
## # ... with 90 more rows

One numerical variable one categorical (2 levels) (diff in means)

mtcars %>%
  specify(mpg ~ am) %>% # alt: response = mpg, explanatory = am
  hypothesize(null = "independence") %>%
  generate(reps = 100, type = "permute") %>%
  calculate(stat = "diff in means")

## # A tibble: 100 x 2
##    replicate       stat
##        <int>      <dbl>
##  1         1 -4.1113360
##  2         2  0.7659919
##  3         3 -1.0829960
##  4         4 -0.2024291
##  5         5  2.8052632
##  6         6  2.5599190
##  7         7 -1.1971660
##  8         8  3.5607287
##  9         9  2.5951417
## 10        10 -2.6923077
## # ... with 90 more rows

One numerical variable one categorical (2 levels) (diff in medians)

mtcars %>%
  specify(mpg ~ am) %>% # alt: response = mpg, explanatory = am
  hypothesize(null = "independence") %>%
  generate(reps = 100, type = "permute") %>%
  calculate(stat = "diff in medians")

## # A tibble: 100 x 2
##    replicate  stat
##        <int> <dbl>
##  1         1   1.3
##  2         2   2.0
##  3         3  -3.3
##  4         4  -3.7
##  5         5   3.3
##  6         6  -3.2
##  7         7   0.0
##  8         8  -2.3
##  9         9   3.2
## 10        10  -0.5
## # ... with 90 more rows

One numerical one categorical (>2 levels) - ANOVA

mtcars %>%
  specify(mpg ~ cyl) %>% # alt: response = mpg, explanatory = cyl
  hypothesize(null = "independence") %>%
  generate(reps = 100, type = "permute") %>%
  calculate(stat = "F")

## # A tibble: 100 x 2
##    replicate      stat
##        <int>     <dbl>
##  1         1 0.5602204
##  2         2 1.7901517
##  3         3 2.5622096
##  4         4 2.1817326
##  5         5 2.1133156
##  6         6 1.2143939
##  7         7 0.3987067
##  8         8 0.7453207
##  9         9 0.1160761
## 10        10 0.9580851
## # ... with 90 more rows

Two numerical vars - SLR

mtcars %>%
  specify(mpg ~ hp) %>% # alt: response = mpg, explanatory = cyl
  hypothesize(null = "independence") %>%
  generate(reps = 100, type = "permute") %>%
  calculate(stat = "slope")

## # A tibble: 100 x 2
##    replicate         stat
##        <int>        <dbl>
##  1         1 -0.008389796
##  2         2  0.004541415
##  3         3  0.010471559
##  4         4  0.009172553
##  5         5 -0.006281485
##  6         6 -0.004554539
##  7         7 -0.009877811
##  8         8  0.007420217
##  9         9 -0.010298632
## 10        10 -0.007908244
## # ... with 90 more rows

Confidence intervals

One numerical (one mean)

mtcars %>%
  specify(response = mpg) %>%
  generate(reps = 100, type = "bootstrap") %>%
  calculate(stat = "mean")

## # A tibble: 100 x 2
##    replicate     stat
##        <int>    <dbl>
##  1         1 20.76875
##  2         2 18.78125
##  3         3 20.95312
##  4         4 19.49687
##  5         5 20.18750
##  6         6 20.44063
##  7         7 19.81563
##  8         8 22.00937
##  9         9 19.15000
## 10        10 19.65312
## # ... with 90 more rows

One numerical (one median)

mtcars %>%
  specify(response = mpg) %>%
  generate(reps = 100, type = "bootstrap") %>%
  calculate(stat = "median")

## # A tibble: 100 x 2
##    replicate  stat
##        <int> <dbl>
##  1         1 19.45
##  2         2 20.35
##  3         3 19.20
##  4         4 21.00
##  5         5 18.70
##  6         6 16.85
##  7         7 18.10
##  8         8 18.95
##  9         9 21.00
## 10        10 19.20
## # ... with 90 more rows

One numerical (standard deviation)

mtcars %>%
  specify(response = mpg) %>%
  generate(reps = 100, type = "bootstrap") %>%
  calculate(stat = "sd")

## # A tibble: 100 x 2
##    replicate     stat
##        <int>    <dbl>
##  1         1 6.401889
##  2         2 5.401359
##  3         3 7.564096
##  4         4 6.506280
##  5         5 6.712146
##  6         6 6.302533
##  7         7 6.186105
##  8         8 6.848657
##  9         9 5.439221
## 10        10 5.729120
## # ... with 90 more rows

One categorical (one proportion)

mtcars %>%
  specify(response = am, success = "1") %>%
  generate(reps = 100, type = "bootstrap") %>%
  calculate(stat = "prop")

## # A tibble: 100 x 2
##    replicate    stat
##        <int>   <dbl>
##  1         1 0.43750
##  2         2 0.40625
##  3         3 0.53125
##  4         4 0.40625
##  5         5 0.43750
##  6         6 0.56250
##  7         7 0.43750
##  8         8 0.28125
##  9         9 0.37500
## 10        10 0.46875
## # ... with 90 more rows

One numerical variable one categorical (2 levels) (diff in means)

mtcars %>%
  specify(mpg ~ am) %>%
  generate(reps = 100, type = "bootstrap") %>%
  calculate(stat = "diff in means")

## # A tibble: 100 x 2
##    replicate     stat
##        <int>    <dbl>
##  1         1 4.922511
##  2         2 8.127778
##  3         3 5.300000
##  4         4 7.025911
##  5         5 5.198431
##  6         6 2.761134
##  7         7 4.931250
##  8         8 6.424638
##  9         9 3.875709
## 10        10 5.387273
## # ... with 90 more rows

Two categorical variables (diff in proportions)

mtcars %>%
  specify(am ~ vs, success = "1") %>%
  generate(reps = 100, type = "bootstrap") %>%
  calculate(stat = "diff in props")

## # A tibble: 100 x 2
##    replicate        stat
##        <int>       <dbl>
##  1         1 -0.10389610
##  2         2 -0.06072874
##  3         3 -0.21666667
##  4         4  0.00000000
##  5         5 -0.08333333
##  6         6  0.11111111
##  7         7  0.48178138
##  8         8 -0.17460317
##  9         9  0.53036437
## 10        10  0.56250000
## # ... with 90 more rows

Two numerical vars - SLR

mtcars %>%
  specify(mpg ~ hp) %>% 
  generate(reps = 100, type = "bootstrap") %>%
  calculate(stat = "slope")

## # A tibble: 100 x 2
##    replicate        stat
##        <int>       <dbl>
##  1         1 -0.09732698
##  2         2 -0.07973008
##  3         3 -0.04572809
##  4         4 -0.06627388
##  5         5 -0.08652455
##  6         6 -0.10750438
##  7         7 -0.05051591
##  8         8 -0.05654740
##  9         9 -0.05259280
## 10        10 -0.06476327
## # ... with 90 more rows
…
