Declare a null hypothesis — hypothesize • infer
…
    Examples

# To see the output of hypothesize() function provided
# in the infer class
if(require(dplyr)){
  mtcars %>%
    mutate(am = factor(am)) %>%
    specify(response = am) %>%
    hypothesize(null = "point", p = c("0" = 0.25, "1" = 0.75))
}
#> Response:  am 
#>  Response Type:  factor 
#> Null Hypothesis:  point 
#> # A tibble: 32 x 1
#>        am
#>    <fctr>
#>  1      1
#>  2      1
#>  3      1
#>  4      0
#>  5      0
#>  6      0
#>  7      0
#>  8      0
#>  9      0
#> 10      0
#> # ... with 22 more rows
…
# To view where hypothesize() falls in the infer package pipeline
if(require(dplyr)) {
# One binary variable
  mtcars %>%
    mutate(am = factor(am)) %>%
    specify(response = am) %>%
    hypothesize(null = "point", p = c("0" = 0.25, "1" = 0.75)) %>%
    generate(reps = 100, type = "simulate") %>%
    calculate(stat = "prop")
}
#> # A tibble: 100 x 2
#>    replicate    stat
#>       <fctr>   <dbl>
#>  1         1 0.28125
#>  2         2 0.31250
#>  3         3 0.28125
#>  4         4 0.25000
#>  5         5 0.28125
#>  6         6 0.28125
#>  7         7 0.31250
#>  8         8 0.34375
#>  9         9 0.34375
#> 10        10 0.28125
#> # ... with 90 more rows

if(require(dplyr)) {
# Permutation test
  mtcars %>%
    mutate(cyl = factor(cyl)) %>%
    specify(mpg ~ cyl) %>%
    hypothesize(null = "independence") %>%
    generate(reps = 100, type = "permute") %>%
    calculate(stat = "F")
}
#> # A tibble: 100 x 2
#>    replicate       stat
#>        <int>      <dbl>
#>  1         1 1.84995910
#>  2         2 0.01710104
#>  3         3 0.22888575
#>  4         4 0.22850762
#>  5         5 0.24310376
#>  6         6 0.35972701
#>  7         7 0.26288023
#>  8         8 1.17124179
#>  9         9 0.27912358
#> 10        10 0.20625131
#> # ... with 90 more rows
…
